*** Life<FredkinCell> 4x4 ***

Generation = 0, Population = 8.
0-0-
0-0-
0-0-
0-0-

Generation = 1, Population = 8.
1-10
---0
---0
1-10

Generation = 2, Population = 4.
--2-
0---
0---
--2-

Generation = 3, Population = 12.
10-0
100-
100-
10-0

Generation = 4, Population = 4.
--2-
2---
2---
--2-

Generation = 5, Population = 12.
10-0
300-
300-
10-0

*** Life<FredkinCell> 4x4 ***

Generation = 0, Population = 16.
0000
0000
0000
0000

Generation = 1, Population = 8.
-11-
1--1
1--1
-11-

Generation = 2, Population = 8.
-22-
2--2
2--2
-22-

Generation = 3, Population = 8.
-33-
3--3
3--3
-33-

Generation = 4, Population = 8.
-44-
4--4
4--4
-44-

Generation = 5, Population = 8.
-55-
5--5
5--5
-55-

*** Life<FredkinCell> 5x5 ***

Generation = 0, Population = 13.
0-0-0
-0-0-
0-0-0
-0-0-
0-0-0

Generation = 1, Population = 8.
-0-0-
0---0
-----
0---0
-0-0-

Generation = 2, Population = 0.
-----
-----
-----
-----
-----

Generation = 3, Population = 0.
-----
-----
-----
-----
-----

Generation = 4, Population = 0.
-----
-----
-----
-----
-----

Generation = 5, Population = 0.
-----
-----
-----
-----
-----

*** Life<FredkinCell> 5x5 ***

Generation = 0, Population = 25.
00000
00000
00000
00000
00000

Generation = 1, Population = 12.
-111-
1---1
1---1
1---1
-111-

Generation = 2, Population = 12.
-2-2-
2-0-2
-0-0-
2-0-2
-2-2-

Generation = 3, Population = 4.
--1--
-----
1---1
-----
--1--

Generation = 4, Population = 12.
-2-2-
2-0-2
-0-0-
2-0-2
-2-2-

Generation = 5, Population = 4.
--1--
-----
1---1
-----
--1--

*** Life<FredkinCell> 1x1 ***

Generation = 0, Population = 1.
0

Generation = 1, Population = 0.
-

Generation = 2, Population = 0.
-

Generation = 3, Population = 0.
-

Generation = 4, Population = 0.
-

Generation = 5, Population = 0.
-

*** Life<FredkinCell> 3x3 ***

Generation = 0, Population = 5.
0-0
-0-
0-0

Generation = 1, Population = 4.
-0-
0-0
-0-

Generation = 2, Population = 0.
---
---
---

Generation = 3, Population = 0.
---
---
---

Generation = 4, Population = 0.
---
---
---

Generation = 5, Population = 0.
---
---
---

*** Life<FredkinCell> 4x3 ***

Generation = 0, Population = 4.
00-
---
00-
---

Generation = 1, Population = 8.
110
---
110
00-

Generation = 2, Population = 4.
2-1
---
-21
---

Generation = 3, Population = 7.
---
00-
132
-00

Generation = 4, Population = 2.
21-
---
---
---

Generation = 5, Population = 5.
321
00-
---
---

*** Life<FredkinCell> 3x3 ***

Generation = 0, Population = 4.
0-0
---
0-0

Generation = 1, Population = 0.
---
---
---

Generation = 2, Population = 0.
---
---
---

Generation = 3, Population = 0.
---
---
---

Generation = 4, Population = 0.
---
---
---

Generation = 5, Population = 0.
---
---
---

*** Life<FredkinCell> 4x4 ***

Generation = 0, Population = 8.
0-0-
0-0-
0-0-
0-0-

Generation = 1, Population = 8.
1-10
---0
---0
1-10

Generation = 2, Population = 4.
--2-
0---
0---
--2-

Generation = 3, Population = 12.
10-0
100-
100-
10-0

Generation = 4, Population = 4.
--2-
2---
2---
--2-

Generation = 5, Population = 12.
10-0
300-
300-
10-0

*** Life<FredkinCell> 1x1 ***

Generation = 0, Population = 0.
-

Generation = 1, Population = 0.
-

Generation = 2, Population = 0.
-

Generation = 3, Population = 0.
-

Generation = 4, Population = 0.
-

Generation = 5, Population = 0.
-

*** Life<FredkinCell> 3x3 ***

Generation = 0, Population = 8.
000
0-0
000

Generation = 1, Population = 0.
---
---
---

Generation = 2, Population = 0.
---
---
---

Generation = 3, Population = 0.
---
---
---

Generation = 4, Population = 0.
---
---
---

Generation = 5, Population = 0.
---
---
---

*** Life<FredkinCell> 3x3 ***

Generation = 0, Population = 4.
-0-
0-0
-0-

Generation = 1, Population = 0.
---
---
---

Generation = 2, Population = 0.
---
---
---

Generation = 3, Population = 0.
---
---
---

Generation = 4, Population = 0.
---
---
---

Generation = 5, Population = 0.
---
---
---
